Copyright 1986-2018 Xilinx, Inc. All Rights Reserved.
------------------------------------------------------------------------------------
| Tool Version : Vivado v.2018.3 (win64) Build 2405991 Thu Dec  6 23:38:27 MST 2018
| Date         : Sun Jan  5 20:28:48 2020
| Host         : DESKTOP-OF2M7FT running 64-bit major release  (build 9200)
| Command      : report_control_sets -verbose -file main_control_sets_placed.rpt
| Design       : main
| Device       : xc7a35t
------------------------------------------------------------------------------------

Control Set Information

Table of Contents
-----------------
1. Summary
2. Histogram
3. Flip-Flop Distribution
4. Detailed Control Set Information

1. Summary
----------

+----------------------------------------------------------+-------+
|                          Status                          | Count |
+----------------------------------------------------------+-------+
| Number of unique control sets                            |    18 |
| Unused register locations in slices containing registers |    91 |
+----------------------------------------------------------+-------+


2. Histogram
------------

+--------+--------------+
| Fanout | Control Sets |
+--------+--------------+
|      1 |           10 |
|      3 |            2 |
|      4 |            1 |
|      6 |            1 |
|      8 |            3 |
|     11 |            1 |
+--------+--------------+


3. Flip-Flop Distribution
-------------------------

+--------------+-----------------------+------------------------+-----------------+--------------+
| Clock Enable | Synchronous Set/Reset | Asynchronous Set/Reset | Total Registers | Total Slices |
+--------------+-----------------------+------------------------+-----------------+--------------+
| No           | No                    | No                     |              18 |            9 |
| No           | No                    | Yes                    |               0 |            0 |
| No           | Yes                   | No                     |              11 |            3 |
| Yes          | No                    | No                     |              29 |           16 |
| Yes          | No                    | Yes                    |               0 |            0 |
| Yes          | Yes                   | No                     |               3 |            1 |
+--------------+-----------------------+------------------------+-----------------+--------------+


4. Detailed Control Set Information
-----------------------------------

+--------------------------------+-------------------------------+---------------------------+------------------+----------------+
|          Clock Signal          |         Enable Signal         |      Set/Reset Signal     | Slice Load Count | Bel Load Count |
+--------------------------------+-------------------------------+---------------------------+------------------+----------------+
|  rx_fsm/rx_rdy_reg_i_2_n_0     |                               |                           |                1 |              1 |
|  clk2_reg_n_0                  | rx_fsm/bit_cnt[3]_i_2_n_0     |                           |                1 |              1 |
|  clk2_reg_n_0                  | rx_fsm/p_0_in[4]              |                           |                1 |              1 |
|  clk2_reg_n_0                  | rx_fsm/p_0_in[3]              |                           |                1 |              1 |
|  clk2_reg_n_0                  | rx_fsm/p_0_in[7]              |                           |                1 |              1 |
|  clk2_reg_n_0                  | rx_fsm/p_0_in[5]              |                           |                1 |              1 |
|  clk2_reg_n_0                  | rx_fsm/p_0_in[0]              |                           |                1 |              1 |
|  clk2_reg_n_0                  | rx_fsm/p_0_in[6]              |                           |                1 |              1 |
|  clk2_reg_n_0                  | rx_fsm/p_0_in[1]              |                           |                1 |              1 |
|  clk2_reg_n_0                  | rx_fsm/p_0_in[2]              |                           |                1 |              1 |
|  clk2_reg_n_0                  |                               |                           |                1 |              3 |
|  clk2_reg_n_0                  | rx_fsm/bit_cnt[3]_i_2_n_0     | rx_fsm/bit_cnt[3]_i_1_n_0 |                1 |              3 |
|  clk2_reg_n_0                  | rx_fsm/baud_cnt[3]_i_1_n_0    |                           |                2 |              4 |
|  CLK_IBUF_BUFG                 |                               |                           |                4 |              6 |
|  rx_fsm/rx_data_reg[7]_i_1_n_0 |                               |                           |                3 |              8 |
|  CLK_IBUF_BUFG                 | state_reader/word[15]_i_1_n_0 |                           |                3 |              8 |
|  CLK_IBUF_BUFG                 | state_reader/word[7]_i_1_n_0  |                           |                2 |              8 |
|  CLK_IBUF_BUFG                 |                               | cnt[11]_i_1_n_0           |                3 |             11 |
+--------------------------------+-------------------------------+---------------------------+------------------+----------------+


